7b_Tibbles
…
tibble vs. data.frame

tb = tibble(
  a = lubridate::now() + runif(1e2) * 86400,
  b = lubridate::today() + runif(1e2) * 30,
  c = 1:1e2,
  d = runif(1e2),
  e = sample(letters, 1e2, replace = TRUE)
)
tb

## # A tibble: 100 × 5
##    a                   b              c      d e    
##    <dttm>              <date>     <int>  <dbl> <chr>
##  1 2023-08-02 00:53:02 2023-08-02     1 0.913  t    
##  2 2023-08-02 07:27:45 2023-08-21     2 0.217  t    
##  3 2023-08-01 22:50:03 2023-08-29     3 0.425  y    
##  4 2023-08-02 10:47:03 2023-08-29     4 0.161  t    
##  5 2023-08-01 18:07:14 2023-08-13     5 0.678  n    
##  6 2023-08-02 06:12:43 2023-08-16     6 0.810  h    
##  7 2023-08-02 08:45:41 2023-08-27     7 0.497  t    
##  8 2023-08-01 20:10:50 2023-08-13     8 0.516  i    
##  9 2023-08-01 18:37:04 2023-08-30     9 0.996  v    
## 10 2023-08-02 07:22:59 2023-08-04    10 0.0142 c    
## # ℹ 90 more rows

tb %>%
  print(n = 4, width = Inf)

## # A tibble: 100 × 5
##   a                   b              c     d e    
##   <dttm>              <date>     <int> <dbl> <chr>
## 1 2023-08-02 00:53:02 2023-08-02     1 0.913 t    
## 2 2023-08-02 07:27:45 2023-08-21     2 0.217 t    
## 3 2023-08-01 22:50:03 2023-08-29     3 0.425 y    
## 4 2023-08-02 10:47:03 2023-08-29     4 0.161 t    
## # ℹ 96 more rows
…
