C7c_E11_I11_Importar
…
Hacer una columna de la proporción de los niños que no
sobrevivieron.

Newborn_Karn_Penrose %>% select(Count_Non_survivors,
Count_Total_Birth) %>% arrange(Count_Total_Birth,
Count_Non_survivors) %>% mutate(Perc_sobrevivieron =
Count_Non_survivors/Count_Total_Birth)

Newborn_Karn_Penrose %>% 
  mutate(Percent_Decease = Count_Non_survivors/Count_Total_Birth)

## # A tibble: 261 × 5
##    Mother_age Count_Non_survivors Count_Total_Birth Birth_weight Percent_Decease
##         <dbl>               <dbl>             <dbl>        <dbl>           <dbl>
##  1         16                   0                 1          9.5               0
##  2         16                   0                 2          9                 0
##  3         16                   0                 1          8.5               0
##  4         16                   0                 3          8                 0
##  5         16                   0                 7          7.5               0
##  6         16                   0                 2          7                 0
##  7         16                   0                 4          6.5               0
##  8         16                   0                 2          6                 0
##  9         16                   0                 2          5.5               0
## 10         16                   0                 1          5                 0
## # ℹ 251 more rows
…
