C12_E16_I16_Fechas_Horas
…
vuelos %>%
  select(anio, mes, dia, hora, minuto) %>%
  mutate(salida = make_datetime(anio, mes, dia, hora, minuto))

## # A tibble: 336,776 x 6
##     anio   mes   dia  hora minuto salida             
##    <int> <int> <int> <dbl>  <dbl> <dttm>             
##  1  2013     1     1     5     15 2013-01-01 05:15:00
##  2  2013     1     1     5     29 2013-01-01 05:29:00
##  3  2013     1     1     5     40 2013-01-01 05:40:00
##  4  2013     1     1     5     45 2013-01-01 05:45:00
##  5  2013     1     1     6      0 2013-01-01 06:00:00
##  6  2013     1     1     5     58 2013-01-01 05:58:00
##  7  2013     1     1     6      0 2013-01-01 06:00:00
##  8  2013     1     1     6      0 2013-01-01 06:00:00
##  9  2013     1     1     6      0 2013-01-01 06:00:00
## 10  2013     1     1     6      0 2013-01-01 06:00:00
## # … with 336,766 more rows

vuelos %>%
  select(anio, mes, dia, hora, minuto) %>%
  mutate(salida2 = make_date(anio, mes, dia))

## # A tibble: 336,776 x 6
##     anio   mes   dia  hora minuto salida2   
##    <int> <int> <int> <dbl>  <dbl> <date>    
##  1  2013     1     1     5     15 2013-01-01
##  2  2013     1     1     5     29 2013-01-01
##  3  2013     1     1     5     40 2013-01-01
##  4  2013     1     1     5     45 2013-01-01
##  5  2013     1     1     6      0 2013-01-01
##  6  2013     1     1     5     58 2013-01-01
##  7  2013     1     1     6      0 2013-01-01
##  8  2013     1     1     6      0 2013-01-01
##  9  2013     1     1     6      0 2013-01-01
## 10  2013     1     1     6      0 2013-01-01
## # … with 336,766 more rows
…
