C5_E6_I6_Scripts
…
no_cancelado %>% 
  group_by(anio, mes, dia) %>% 
  summarise(media = mean(atraso_salida))

## # A tibble: 365 x 4
## # Groups:   anio, mes [12]
##     anio   mes   dia media
##    <int> <int> <int> <dbl>
##  1  2013     1     1 11.4 
##  2  2013     1     2 13.7 
##  3  2013     1     3 10.9 
##  4  2013     1     4  8.97
##  5  2013     1     5  5.73
##  6  2013     1     6  7.15
##  7  2013     1     7  5.42
##  8  2013     1     8  2.56
##  9  2013     1     9  2.30
## 10  2013     1    10  2.84
## #  with 355 more rows
…
