C8_E12_I12_Datos_Ordenados, Tidyr
…
Ejercicios:

Hacer los ejercicios en la sección 12.5.1 del libro en español

Estudio de Caso

Ejercicios:

Hacer los ejercicios en la sección 12.6.1 del libro en español

oms

## # A tibble: 7,240 x 60
##    pais      iso2  iso3   anio nuevos_fpp_h014 nuevos_fpp_h1524 nuevos_fpp_h2534
##    <chr>     <chr> <chr> <int>           <int>            <int>            <int>
##  1 Afganist… AF    AFG    1980              NA               NA               NA
##  2 Afganist… AF    AFG    1981              NA               NA               NA
##  3 Afganist… AF    AFG    1982              NA               NA               NA
##  4 Afganist… AF    AFG    1983              NA               NA               NA
##  5 Afganist… AF    AFG    1984              NA               NA               NA
##  6 Afganist… AF    AFG    1985              NA               NA               NA
##  7 Afganist… AF    AFG    1986              NA               NA               NA
##  8 Afganist… AF    AFG    1987              NA               NA               NA
##  9 Afganist… AF    AFG    1988              NA               NA               NA
## 10 Afganist… AF    AFG    1989              NA               NA               NA
## # … with 7,230 more rows, and 53 more variables: nuevos_fpp_h3534 <int>,
## #   nuevos_fpp_h4554 <int>, nuevos_fpp_h5564 <int>, nuevos_fpp_h65 <int>,
## #   nuevos_fpp_m014 <int>, nuevos_fpp_m1524 <int>, nuevos_fpp_m2534 <int>,
## #   nuevos_fpp_m3534 <int>, nuevos_fpp_m4554 <int>, nuevos_fpp_m5564 <int>,
## #   nuevos_fpp_m65 <int>, nuevos_fpn_h014 <int>, nuevos_fpn_h1524 <int>,
## #   nuevos_fpn_h2534 <int>, nuevos_fpn_h3534 <int>, nuevos_fpn_h4554 <int>,
## #   nuevos_fpn_h5564 <int>, nuevos_fpn_h65 <int>, nuevos_fpn_m014 <int>,
## #   nuevos_fpn_m1524 <int>, nuevos_fpn_m2534 <int>, nuevos_fpn_m3534 <int>,
## #   nuevos_fpn_m4554 <int>, nuevos_fpn_m5564 <int>, nuevos_fpn_m65 <int>,
…
oms1 <- oms %>%
  pivot_longer(
    cols = nuevos_fpp_h014:nuevosrecaida_m65, 
    names_to = "clave", 
    values_to = "casos", 
    values_drop_na = TRUE
  )

oms1

## # A tibble: 76,046 x 6
##    pais       iso2  iso3   anio clave            casos
##    <chr>      <chr> <chr> <int> <chr>            <int>
##  1 Afganistán AF    AFG    1997 nuevos_fpp_h014      0
##  2 Afganistán AF    AFG    1997 nuevos_fpp_h1524    10
##  3 Afganistán AF    AFG    1997 nuevos_fpp_h2534     6
##  4 Afganistán AF    AFG    1997 nuevos_fpp_h3534     3
##  5 Afganistán AF    AFG    1997 nuevos_fpp_h4554     5
##  6 Afganistán AF    AFG    1997 nuevos_fpp_h5564     2
##  7 Afganistán AF    AFG    1997 nuevos_fpp_h65       0
##  8 Afganistán AF    AFG    1997 nuevos_fpp_m014      5
##  9 Afganistán AF    AFG    1997 nuevos_fpp_m1524    38
## 10 Afganistán AF    AFG    1997 nuevos_fpp_m2534    36
## # … with 76,036 more rows

oms1 %>%
  separate(iso3, c("dos", "uno"), sep = 1)

## # A tibble: 76,046 x 7
##    pais       iso2  dos   uno    anio clave            casos
##    <chr>      <chr> <chr> <chr> <int> <chr>            <int>
##  1 Afganistán AF    A     FG     1997 nuevos_fpp_h014      0
##  2 Afganistán AF    A     FG     1997 nuevos_fpp_h1524    10
##  3 Afganistán AF    A     FG     1997 nuevos_fpp_h2534     6
##  4 Afganistán AF    A     FG     1997 nuevos_fpp_h3534     3
##  5 Afganistán AF    A     FG     1997 nuevos_fpp_h4554     5
##  6 Afganistán AF    A     FG     1997 nuevos_fpp_h5564     2
##  7 Afganistán AF    A     FG     1997 nuevos_fpp_h65       0
##  8 Afganistán AF    A     FG     1997 nuevos_fpp_m014      5
##  9 Afganistán AF    A     FG     1997 nuevos_fpp_m1524    38
## 10 Afganistán AF    A     FG     1997 nuevos_fpp_m2534    36
## # … with 76,036 more rows
…
omsPR=oms1 %>% 
  select(-iso2, -iso3) %>% 
  filter(pais == "Puerto Rico")

oms3 <- omsPR %>%
  separate(clave, c("nuevos", "tipo", "sexo_edad"), sep = "_")
oms3

## # A tibble: 462 x 6
##    pais         anio nuevos tipo  sexo_edad casos
##    <chr>       <int> <chr>  <chr> <chr>     <int>
##  1 Puerto Rico  1995 nuevos fpp   h014          4
##  2 Puerto Rico  1995 nuevos fpp   h1524         3
##  3 Puerto Rico  1995 nuevos fpp   h2534        12
##  4 Puerto Rico  1995 nuevos fpp   h3534        20
##  5 Puerto Rico  1995 nuevos fpp   h4554        15
##  6 Puerto Rico  1995 nuevos fpp   h5564         9
##  7 Puerto Rico  1995 nuevos fpp   h65          19
##  8 Puerto Rico  1995 nuevos fpp   m014          1
##  9 Puerto Rico  1995 nuevos fpp   m1524         2
## 10 Puerto Rico  1995 nuevos fpp   m2534         6
## # … with 452 more rows

oms4 <- oms3 %>%
  separate(sexo_edad, c("sexo", "edad"), sep =1)
oms4

## # A tibble: 462 x 7
##    pais         anio nuevos tipo  sexo  edad  casos
##    <chr>       <int> <chr>  <chr> <chr> <chr> <int>
##  1 Puerto Rico  1995 nuevos fpp   h     014       4
##  2 Puerto Rico  1995 nuevos fpp   h     1524      3
##  3 Puerto Rico  1995 nuevos fpp   h     2534     12
##  4 Puerto Rico  1995 nuevos fpp   h     3534     20
##  5 Puerto Rico  1995 nuevos fpp   h     4554     15
##  6 Puerto Rico  1995 nuevos fpp   h     5564      9
##  7 Puerto Rico  1995 nuevos fpp   h     65       19
##  8 Puerto Rico  1995 nuevos fpp   m     014       1
##  9 Puerto Rico  1995 nuevos fpp   m     1524      2
## 10 Puerto Rico  1995 nuevos fpp   m     2534      6
## # … with 452 more rows
…
oms4

## # A tibble: 462 x 7
##    pais         anio nuevos tipo  sexo  edad  casos
##    <chr>       <int> <chr>  <chr> <chr> <chr> <int>
##  1 Puerto Rico  1995 nuevos fpp   h     014       4
##  2 Puerto Rico  1995 nuevos fpp   h     1524      3
##  3 Puerto Rico  1995 nuevos fpp   h     2534     12
##  4 Puerto Rico  1995 nuevos fpp   h     3534     20
##  5 Puerto Rico  1995 nuevos fpp   h     4554     15
##  6 Puerto Rico  1995 nuevos fpp   h     5564      9
##  7 Puerto Rico  1995 nuevos fpp   h     65       19
##  8 Puerto Rico  1995 nuevos fpp   m     014       1
##  9 Puerto Rico  1995 nuevos fpp   m     1524      2
## 10 Puerto Rico  1995 nuevos fpp   m     2534      6
## # … with 452 more rows
…
