C_4_E5_I3_Transformacion_dplyr
…
Fecha de la ultima revisión

## [1] "2021-02-01"

El tema proviene de los siguientes sitios.

English: https://r4ds.had.co.nz/transform.html

Español: https://r4ds-en-espaniol.netlify.app/transform.html

library(tidyverse)
library(datos)
vuelos

## # A tibble: 336,776 x 19
##     anio   mes   dia horario_salida salida_programa… atraso_salida
##    <int> <int> <int>          <int>            <int>         <dbl>
##  1  2013     1     1            517              515             2
##  2  2013     1     1            533              529             4
##  3  2013     1     1            542              540             2
##  4  2013     1     1            544              545            -1
##  5  2013     1     1            554              600            -6
##  6  2013     1     1            554              558            -4
##  7  2013     1     1            555              600            -5
##  8  2013     1     1            557              600            -3
##  9  2013     1     1            557              600            -3
## 10  2013     1     1            558              600            -2
## # … with 336,766 more rows, and 13 more variables: horario_llegada <int>,
## #   llegada_programada <int>, atraso_llegada <dbl>, aerolinea <chr>,
## #   vuelo <int>, codigo_cola <chr>, origen <chr>, destino <chr>,
## #   tiempo_vuelo <dbl>, distancia <dbl>, hora <dbl>, minuto <dbl>,
## #   fecha_hora <dttm>
…
##   [1] "IAH" "MIA" "BQN" "ATL" "ORD" "FLL" "IAD" "MCO" "PBI" "TPA" "LAX" "SFO"
##  [13] "DFW" "BOS" "LAS" "MSP" "DTW" "RSW" "SJU" "PHX" "BWI" "CLT" "BUF" "DEN"
##  [25] "SNA" "MSY" "SLC" "XNA" "MKE" "SEA" "ROC" "SYR" "SRQ" "RDU" "CMH" "JAX"
##  [37] "CHS" "MEM" "PIT" "SAN" "DCA" "CLE" "STL" "MYR" "JAC" "MDW" "HNL" "BNA"
##  [49] "AUS" "BTV" "PHL" "STT" "EGE" "AVL" "PWM" "IND" "SAV" "CAK" "HOU" "LGB"
##  [61] "DAY" "ALB" "BDL" "MHT" "MSN" "GSO" "CVG" "BUR" "RIC" "GSP" "GRR" "MCI"
##  [73] "ORF" "SAT" "SDF" "PDX" "SJC" "OMA" "CRW" "OAK" "SMF" "TUL" "TYS" "OKC"
##  [85] "PVD" "DSM" "PSE" "BHM" "CAE" "HDN" "BZN" "MTJ" "EYW" "PSP" "ACK" "BGR"
##  [97] "ABQ" "ILM" "MVY" "SBN" "LEX" "CHO" "TVC" "ANC" "LGA"

vuelos %>% 
  filter(destino=="SJU")

## # A tibble: 5,819 x 19
##     anio   mes   dia horario_salida salida_programa… atraso_salida
##    <int> <int> <int>          <int>            <int>         <dbl>
##  1  2013     1     1            615              615             0
##  2  2013     1     1            628              630            -2
##  3  2013     1     1            701              700             1
##  4  2013     1     1            711              715            -4
##  5  2013     1     1            820              820             0
##  6  2013     1     1            820              820             0
##  7  2013     1     1            840              845            -5
##  8  2013     1     1            926              929            -3
##  9  2013     1     1           1202             1159             3
## 10  2013     1     1           1245             1249            -4
## # … with 5,809 more rows, and 13 more variables: horario_llegada <int>,
## #   llegada_programada <int>, atraso_llegada <dbl>, aerolinea <chr>,
## #   vuelo <int>, codigo_cola <chr>, origen <chr>, destino <chr>,
## #   tiempo_vuelo <dbl>, distancia <dbl>, hora <dbl>, minuto <dbl>,
## #   fecha_hora <dttm>
…
