Cherry_Blossum
…
Join the three files and show the head and tail of the new data frame

Cherry_B=F1 %>% 
full_join(F2) %>% 
  full_join(F3)

## Joining, by = "AD"
## Joining, by = "AD"

Cherry_B

## # A tibble: 1,309 x 14
##       AD  TEMP Obs_Temp Full_flow_date_DOY Full_flowering_date Source_code
##    <dbl> <dbl>    <dbl>              <dbl>               <dbl>       <dbl>
##  1   801 -999.    -999.                 NA                  NA          NA
##  2   802 -999.    -999.                 NA                  NA          NA
##  3   803 -999.    -999.                 NA                  NA          NA
##  4   804 -999.    -999.                 NA                  NA          NA
##  5   805 -999.    -999.                 NA                  NA          NA
##  6   806 -999.    -999.                 NA                  NA          NA
##  7   807 -999.    -999.                 NA                  NA          NA
##  8   808 -999.    -999.                 NA                  NA          NA
##  9   809 -999.    -999.                 NA                  NA          NA
## 10   810 -999.    -999.                 NA                  NA          NA
## # … with 1,299 more rows, and 8 more variables: Reference_Name <chr>,
## #   Temp_3_31 <dbl>, Temp_3_31_1 <dbl>, TemP_3_22 <dbl>, Actual_Temp <lgl>,
## #   Urban_Effect_31 <lgl>, Conf_CI_low <dbl>, Conf_CI_High <dbl>
…
Now do a figure showing the mean average temperature (10 year running average) and C02 concentration. To calculate the mean running average of the temparature use the following variable, Temp_3_31_1. (which is the mean march temperature).

CB

## # A tibble: 2,015 x 16
##       AD  TEMP Obs_Temp Full_flow_date_DOY Full_flowering_date Source_code
##    <dbl> <dbl>    <dbl>              <dbl>               <dbl>       <dbl>
##  1   801    NA       NA                 NA                  NA          NA
##  2   802    NA       NA                 NA                  NA          NA
##  3   803    NA       NA                 NA                  NA          NA
##  4   804    NA       NA                 NA                  NA          NA
##  5   805    NA       NA                 NA                  NA          NA
##  6   806    NA       NA                 NA                  NA          NA
##  7   807    NA       NA                 NA                  NA          NA
##  8   808    NA       NA                 NA                  NA          NA
##  9   809    NA       NA                 NA                  NA          NA
## 10   810    NA       NA                 NA                  NA          NA
## # … with 2,005 more rows, and 10 more variables: Reference_Name <chr>,
## #   Temp_3_31 <dbl>, Temp_3_31_1 <dbl>, TemP_3_22 <dbl>, Actual_Temp <lgl>,
## #   Urban_Effect_31 <lgl>, Conf_CI_low <dbl>, Conf_CI_High <dbl>, RAB <dbl>,
## #   data_mean_global_CO2 <dbl>
…
