SUPERHEROES
…
unique(Superhero$heronames)

## NULL

Renombrar los nombres de las categorías para los tipos de Superheroes. En el archivo como están identificados las categorías de superheroes?

#Superhero
Superhero$heronames<-factor(Superhero$hero, levels = c(1:4), 
     labels = c("Spiderman","Superman", "Hulk", "Ninja Turtle"))
Superhero

## # A tibble: 30 x 3
##     hero injury heronames
##    <dbl>  <dbl> <fct>    
##  1     1     51 Spiderman
##  2     1     31 Spiderman
##  3     1     58 Spiderman
##  4     1     20 Spiderman
##  5     1     47 Spiderman
##  6     1     37 Spiderman
##  7     1     49 Spiderman
##  8     1     40 Spiderman
##  9     2     69 Superman 
## 10     2     32 Superman 
## # … with 20 more rows
…
